…
There are 6729 candidates in total who have declared zero immovable
assets (both outside and inside Pakistan).

#### 4. Jewellery, Cash and others

In addition to immovable asset values and details, other measures of
wealth we have are: 1. Business Capital Ownership within and outside
Pakistan 2. Investments in varying forms (stocks, loans, mortages) 3.
Total value of owned motor cars (the motor car number and count ALL NA
majorly)

    #> # A tibble: 17,265 x 3
    #>    motor_cost motor_number motor_g_count
    #>         <dbl>        <dbl>         <dbl>
    #>  1        -99           NA            NA
    #>  2    1000000           NA            NA
    #>  3    1200000           NA            NA
    #>  4          0           NA            NA
    #>  5          0           NA            NA
    #>  6     430000           NA            NA
    #>  7          0           NA            NA
    #>  8     600000           NA            NA
    #>  9    2300000           NA            NA
    #> 10    2000000           NA            NA
    #> # ... with 17,255 more rows
…
