…
    with(cleaned_assets,
         table(!is.na(cnic_not_in_scrutiny_correction), 
               !is.na(cnic_num_length_correction))
    )

    #>        
    #>         FALSE  TRUE
    #>   FALSE 14714     4
    #>   TRUE   3339    21

    filter(cleaned_assets, !is.na(cnic_not_in_scrutiny_correction), !is.na(cnic_num_length_correction)) %>%
      select(contains("cnic"))

    #> # A tibble: 21 x 3
    #>    cnic         cnic_not_in_scrutiny_correction cnic_num_length_correction
    #>    <chr>        <chr>                           <chr>                     
    #>  1 0            9999999999999                   9999999999999             
    #>  2 888888888888 5340591911591                   5340591911591             
    #>  3 540161898870 1540161899967                   8888888888888             
    #>  4 0            8888888888888                   8888888888888             
    #>  5 0            9999999999999                   1550122356083             
    #>  6 0            9999999999999                   8888888888888             
    #>  7 0            9999999999999                   8888888888888             
    #>  8 310114432201 3102114422201                   3101144322201             
    #>  9 0            9999999999999                   9999999999999             
    #> 10 0            3310090934327                   3310090934327             
    #> # ... with 11 more rows
…
    #> [1] FALSE

    cleaned_assets <- cleaned_assets %>%
      select(-starts_with("cnic_num"),
             -starts_with("cnic_not_in_scrutiny"),
             -ends_with("_found"),
             -cnic,
             -cnic_final) %>%
      rename(cnic = cnic_final_clean)

    cleaned_assets %>%
      select(contains("cnic"))

    #> # A tibble: 18,078 x 1
    #>    cnic         
    #>    <chr>        
    #>  1 1520180553675
    #>  2 4220184094665
    #>  3 1730123558311
    #>  4 3740504048361
    #>  5 1520214841539
    #>  6 4320360891447
    #>  7 1520161913233
    #>  8 1520261432777
    #>  9 1520174149689
    #> 10 1520156395457
    #> # ... with 18,068 more rows
…
    filter(cleaned_assets, uid_correction == "-9999") %>%
      select(contains("uid"), constituency_code)

    #> # A tibble: 339 x 6
    #>    uid   uid_correction uid_chars uid_correction_second uid_chars_second
    #>    <chr> <chr>              <int> <chr>                            <int>
    #>  1 02913 -9999                  5 -9999                                5
    #>  2 03088 -9999                  5 <NA>                                NA
    #>  3 03184 -9999                  5 <NA>                                NA
    #>  4 09304 -9999                  5 -9999                                5
    #>  5 03330 -9999                  5 03331                                5
    #>  6 03412 -9999                  5 <NA>                                NA
    #>  7 03415 -9999                  5 <NA>                                NA
    #>  8 06929 -9999                  5 <NA>                                NA
    #>  9 01369 -9999                  5 <NA>                                NA
    #> 10 00593 -9999                  5 <NA>                                NA
    #> # ... with 329 more rows, and 1 more variable: constituency_code <chr>
…
    need <- still_needed %>%
      filter(!(key %in% done$key))
    if (nrow(need) != 0) {
      stop("Still some needed")
    }

Now check those duplicates in one constituency.

    same_cons <- dup_uids %>%
      filter(length(unique(constituency_code)) == 1 & !only_one_old_some_new) %>%
      select(key, enum_name, uid, candidate_name, constituency_code, entry)
    same_cons

    #> # A tibble: 93 x 6
    #> # Groups:   uid [44]
    #>    key              enum_name uid   candidate_name  constituency_co entry
    #>    <chr>                <dbl> <chr> <chr>           <chr>            <chr>
    #>  1 uuid:b4cacdd0-1       137 00499 Anis Qureshi    NA-138           old  
    #>  2 uuid:4cd895a5-e       137 00499 Dawood Anis Qu NA-138           old  
    #>  3 uuid:062547f1-5       131 00569 Raiz Ul Haq     NA-142           old  
    #>  4 uuid:b6cdead7-1       131 00569 Sheraz Zafar    NA-142           old  
    #>  5 uuid:dd95cd3d-a       107 01009 Muhammad Arshad NA-180           old  
    #>  6 uuid:8cfd91c8-2       107 01009 Muhammad Arshad NA-180           old  
    #>  7 uuid:764b53e1-4       105 01141 Abdul Rehman    NA-191           old  
    #>  8 uuid:ca7e9822-d       105 01141 Abdul Rehman    NA-191           old  
    #>  9 uuid:0ec8e338-1       105 01141 Dr Mian Abdul  NA-191           old  
    #> 10 uuid:399065a6-6       105 01149 Parveen Akhtar  NA-191           old  
    #> # ... with 83 more rows
…
    cleaned_assets %>%
      filter(constituency_code == "PK-30") %>%
      select(1:10)

    #> # A tibble: 28 x 10
    #>    enum_name enum_other type_seat const_number uid_initial candidate_name 
    #>        <dbl> <chr>      <chr>            <dbl> <chr>       <chr>          
    #>  1       125 <NA>       PK                  30 -9999       Abdul Qadoos K
    #>  2       134 <NA>       PK                  30 -9999       Aman Ullah     
    #>  3       134 <NA>       PK                  30 -9999       Arbab Zarak Kh
    #>  4       125 <NA>       PK                  30 -9999       Asad Ali       
    #>  5       125 <NA>       PK                  30 -9999       Atta Ullah     
    #>  6       134 <NA>       PK                  30 -9999       Fahad Ali      
    #>  7       134 <NA>       PK                  30 -9999       Khalid Masood  
    #>  8       125 <NA>       PK                  30 -9999       M Bashir       
    #>  9       125 <NA>       PK                  30 -9999       M Ijaz Khan    
    #> 10       134 <NA>       PK                  30 -9999       M.Tariq        
    #> # ... with 18 more rows, and 4 more variables: im_prop_pak <dbl>,
    #> #   im_prop_pak_g_count <dbl>, im_prop_pak_p_1 <dbl>,
    #> #   im_prop_pak_t_1 <dbl>
…
    clean_uids

    #> # A tibble: 421 x 5
    #>    key            uid_dup_resolved uid_dup_notes  uid_dup_drop uid_dup_new
    #>    <chr>          <lgl>            <chr>          <lgl>        <chr>      
    #>  1 uuid:eb6f316f TRUE             keeper_new_ol FALSE        <NA>       
    #>  2 uuid:c600a48b TRUE             dropper_new_o TRUE         <NA>       
    #>  3 uuid:fe691388 TRUE             keeper_new_ol FALSE        <NA>       
    #>  4 uuid:5502ffee TRUE             dropper_new_o TRUE         <NA>       
    #>  5 uuid:a26d194d TRUE             keeper_new_ol FALSE        <NA>       
    #>  6 uuid:8ad065f8 TRUE             dropper_new_o TRUE         <NA>       
    #>  7 uuid:fe236480 TRUE             keeper_new_ol FALSE        <NA>       
    #>  8 uuid:ee7d77a3 TRUE             dropper_new_o TRUE         <NA>       
    #>  9 uuid:97d81fbd TRUE             keeper_new_ol FALSE        <NA>       
    #> 10 uuid:0299c40e TRUE             dropper_new_o TRUE         <NA>       
    #> # ... with 411 more rows
…
