…
    ## Warning in rbind(names(probs), probs_f): number of columns of result is not
    ## a multiple of vector length (arg 1)

    ## Warning: 204 parsing failures.
    ## row # A tibble: 5 x 5 col     row col          expected   actual file                                expected   <int> <chr>        <chr>      <chr>  <chr>                               actual 1  8661 Motor Number an integer Error  'data/rsols_corrections/car_data.c… file 2  8662 Motor Number an integer Error  'data/rsols_corrections/car_data.c… row 3  8663 Motor Number an integer Error  'data/rsols_corrections/car_data.c… col 4  8664 Motor Number an integer Error  'data/rsols_corrections/car_data.c… expected 5  8665 Motor Number an integer Error  'data/rsols_corrections/car_data.c…
    ## ... ................. ... .......................................................................... ........ .......................................................................... ...... .......................................................................... .... .......................................................................... ... .......................................................................... ... .......................................................................... ........ ..........................................................................
    ## See problems(...) for more details.

    m_car_totals <- cars %>%
      select(key, `Motor Number`) %>%
      rename(motor_number = `Motor Number`) %>%
      filter(!is.na(motor_number))
    m_car_totals

    ## # A tibble: 8,660 x 2
    ##    key                                       motor_number
    ##    <chr>                                            <int>
    ##  1 uuid:7d3d28c0-6762-42de-926f-4ac504a431c3            0
    ##  2 uuid:75e4e171-6979-42d5-b2a5-1fd7c3603148            0
    ##  3 uuid:72291c8c-69a5-44e2-806e-7e303ffa9a91            0
    ##  4 uuid:be7bd307-c114-48c3-96eb-bcf77675fe80            0
    ##  5 uuid:32758264-c6fd-4f39-a659-78dc69d0fd62            0
    ##  6 uuid:77fec5c5-b889-4c19-aadd-5398a34f79cf            0
    ##  7 uuid:22fe8540-0fcc-4da6-9dc9-e85dee8454df            0
    ##  8 uuid:ba79ae44-26a2-44e7-87a8-df7b08d8b82d            0
    ##  9 uuid:7a736163-faf4-4115-9a8f-e755fa5d1cfb            0
    ## 10 uuid:1de65941-4034-4f97-bc54-2117bbde7ec8            0
    ## # ... with 8,650 more rows
…
      ) %>%
      mutate_at(
        vars(jewel_cost, jewel_tolas),
        funs(
          case = case_when(
            . > 0 ~ "Positive",
            . == 0 ~ "Zero",
            is.na(.) ~ "Not Available"
          )
        )
      ) %>%
      select(key, jewel_cost, jewel_tolas)
    m_jewelry

    ## # A tibble: 17,927 x 3
    ##    key                                       jewel_cost jewel_tolas
    ##    <chr>                                          <dbl>       <dbl>
    ##  1 uuid:00072420-22b9-4ee2-aee0-f5cf3fc9ec9c     105000           1
    ##  2 uuid:000c3ed5-40ce-4ca0-a160-3fc34e0fffa1          0           0
    ##  3 uuid:00106aab-12b2-4019-b791-fc313d5da0c5         NA         150
    ##  4 uuid:0014f215-8750-4f0f-84d8-df8acad8376f     300000           5
    ##  5 uuid:00162bec-e239-454e-a198-3c8b0027d4e4         NA           0
    ##  6 uuid:001cfc22-000a-4288-a51e-7182b5c196f5          0           0
    ##  7 uuid:00237fe0-9a9b-45fb-a5c4-f6cdd10aef10         NA           0
    ##  8 uuid:00377336-29a4-444c-a046-8fb05ba9bd63    1140000          20
    ##  9 uuid:003881d5-327e-4f16-a36e-6bc8713d9c68     250000           5
    ## 10 uuid:003945f8-a673-490a-b73e-81395512202c     560000         130
    ## # ... with 17,917 more rows
…
    m_cash_liabilities

    ## # A tibble: 17,927 x 7
    ##    key                cash cash_bank furniture_value assets_transferred_t…
    ##    <chr>             <dbl>     <dbl>           <dbl>                 <dbl>
    ##  1 uuid:00072420-2… 7.50e4         0          100000                     0
    ##  2 uuid:000c3ed5-4… 0.             0               0                     0
    ##  3 uuid:00106aab-1… 8.00e3        NA               0                     0
    ##  4 uuid:0014f215-8… 0.             0               0                     0
    ##  5 uuid:00162bec-e… 0.             0          150000                     0
    ##  6 uuid:001cfc22-0… 5.53e5    687980               0             133000000
    ##  7 uuid:00237fe0-9… 2.50e5        NA           70000                     0
    ##  8 uuid:00377336-2… 8.73e6     15000           50000                    NA
    ##  9 uuid:003881d5-3… 2.00e4     10000          300000                     0
    ## 10 uuid:003945f8-a… 1.88e6  44866842         1447905                     0
    ## # ... with 17,917 more rows, and 2 more variables:
    ## #   other_assets_value <dbl>, liabilities <dbl>
…
    #renaming so aren't confused with the tehsil district of the place where elections are being contested. 

    # table(cleaned_assets$cand_vote_electoral_area)
    #this is varied. Has weird numbers or text. How to fix this?

    # will/can clean district and tehsil vars

    # district
    # table(cleaned_assets$cand_vote_district)
    filter(cleaned_assets, constituency_code == "NA-253") %>%
      select(candidate_name, dependents)

    ## # A tibble: 24 x 2
    ##    candidate_name                dependents
    ##    <chr>                              <int>
    ##  1 Maulana Tanveer Ul Haq Thanvi          7
    ##  2 M. Javaid Hanif                      -99
    ##  3 Amjad Ullah Khan                     -99
    ##  4 Shehzad Majeed                         0
    ##  5 M. Nasir                               4
    ##  6 Abdul Hakeem Qaid                      5
    ##  7 Abdul Waseem                           6
    ##  8 Amber Naeem                            5
    ##  9 Ch Muhammad Javaid Ishaq               5
    ## 10 Khalid Mumtaz                        -99
    ## # ... with 14 more rows
…
